module main

go 1.21.6

require github.com/gofiber/fiber/v2 v2.52.0

require (
	github.com/andybalholm/brotli v1.0.5 // indirect
	github.com/go-sql-driver/mysql v1.7.1 // indirect
	github.com/gofiber/storage/mysql v1.3.7 // indirect
	github.com/google/uuid v1.5.0 // indirect
	github.com/joho/godotenv v1.5.1 // indirect
	github.com/klauspost/compress v1.17.0 // indirect
	github.com/mattn/go-colorable v0.1.13 // indirect
	github.com/mattn/go-isatty v0.0.20 // indirect
	github.com/mattn/go-runewidth v0.0.15 // indirect
	github.com/rivo/uniseg v0.2.0 // indirect
	github.com/valyala/bytebufferpool v1.0.0 // indirect
	github.com/valyala/fasthttp v1.51.0 // indirect
	github.com/valyala/tcplisten v1.0.0 // indirect
	golang.org/x/sys v0.15.0 // indirect
)
